<svg width="592" height="380" viewBox="0 0 592 380" fill="none" xmlns="http://www.w3.org/2000/svg">
<rect width="113.049" height="244.648" transform="matrix(0.935924 0.352202 0.352202 -0.935924 277.678 281.374)" fill="#78BEFF"/>
<rect width="111.688" height="338.363" rx="50" transform="matrix(0.950583 0.310471 0.310471 -0.950583 85.6807 329.135)" fill="#78BEFF"/>
<rect width="111.688" height="357.793" rx="50" transform="matrix(-0.914778 0.403957 0.403957 0.914778 446.609 0.0625)" fill="#3FA3FF"/>
<rect width="111.688" height="357.793" rx="50" transform="matrix(-0.914778 0.403957 0.403957 0.914778 258.867 0)" fill="#3FA3FF"/>
<rect width="111.688" height="224.327" rx="50" transform="matrix(-0.914778 0.403957 0.403957 0.914778 133.03 129.11)" fill="#3FA3FF"/>
<circle cx="53.5" cy="87.2031" r="53.5" fill="#3FA3FF"/>
</svg>
