<svg width="131" height="28" viewBox="0 0 131 28" fill="none" xmlns="http://www.w3.org/2000/svg">
<path d="M1.73313 20.1594C1.05666 20.2248 0.56129 20.8262 0.626698 21.5027C0.692105 22.1792 1.29352 22.6745 1.96999 22.6091L1.73313 20.1594ZM39.5474 18.6137C39.9794 18.0891 39.9045 17.3136 39.3799 16.8815L30.8312 9.8402C30.3066 9.40811 29.5311 9.48309 29.099 10.0077C28.6669 10.5323 28.7419 11.3078 29.2665 11.7399L36.8653 17.9988L30.6064 25.5977C30.1743 26.1223 30.2492 26.8978 30.7738 27.3299C31.2984 27.762 32.074 27.687 32.5061 27.1624L39.5474 18.6137ZM1.96999 22.6091L38.7159 19.0562L38.4791 16.6065L1.73313 20.1594L1.96999 22.6091Z" fill="#FFE8D7"/>
<path d="M47.4616 15.7383C46.7852 15.8037 46.2898 16.4051 46.3552 17.0816C46.4206 17.758 47.022 18.2534 47.6985 18.188L47.4616 15.7383ZM85.2759 14.1926C85.708 13.668 85.633 12.8924 85.1084 12.4604L76.5597 5.41905C76.0351 4.98696 75.2596 5.06195 74.8275 5.58654C74.3954 6.11113 74.4704 6.88667 74.995 7.31876L82.5938 13.5777L76.3349 21.1765C75.9028 21.7011 75.9778 22.4767 76.5024 22.9087C77.0269 23.3408 77.8025 23.2658 78.2346 22.7413L85.2759 14.1926ZM47.6985 18.188L84.4445 14.6351L84.2076 12.1853L47.4616 15.7383L47.6985 18.188Z" fill="#FFC69D"/>
<path d="M92.3733 11.3956C91.6968 11.461 91.2014 12.0624 91.2668 12.7389C91.3322 13.4154 91.9337 13.9108 92.6101 13.8453L92.3733 11.3956ZM130.187 9.84992C130.62 9.32533 130.545 8.54979 130.02 8.1177L121.471 1.0764C120.947 0.64431 120.171 0.719296 119.739 1.24389C119.307 1.76848 119.382 2.54402 119.907 2.97611L127.505 9.23504L121.246 16.8339C120.814 17.3585 120.889 18.134 121.414 18.5661C121.939 18.9982 122.714 18.9232 123.146 18.3986L130.187 9.84992ZM92.6101 13.8453L129.356 10.2924L129.119 7.84269L92.3733 11.3956L92.6101 13.8453Z" fill="#FF9040"/>
</svg>
