<svg width="64" height="64" viewBox="0 0 64 64" fill="none" xmlns="http://www.w3.org/2000/svg">
<circle cx="32.3581" cy="31.9502" r="31.4817" fill="#3FA3FF"/>
<path d="M44.8896 42.4432V33.1729C44.8895 32.9979 44.8454 32.8257 44.7613 32.6722C44.6876 32.5501 44.5772 32.4544 44.4458 32.399C44.3082 32.341 44.1632 32.3028 44.0149 32.2853C43.8585 32.2658 43.7011 32.256 43.5436 32.2559H43.0558V23.301C43.1126 23.1763 43.1951 23.0296 43.2997 22.8572C43.4042 22.6849 43.5051 22.4941 43.6004 22.2851C43.6958 22.0742 43.782 21.8779 43.8572 21.6982C43.9238 21.5584 43.963 21.4072 43.9727 21.2526C43.9456 21.0539 43.9027 20.8576 43.8443 20.6658C43.7589 20.3611 43.6628 20.0596 43.5564 19.7616C43.4481 19.4554 43.3381 19.1497 43.2263 18.8447C43.1486 18.6374 43.0776 18.4276 43.0136 18.2157C42.9437 18.0337 42.8242 17.8749 42.6688 17.7572C42.5162 17.6425 42.3297 17.5819 42.1388 17.5848H38.471C38.2752 17.5929 38.0859 17.6579 37.9264 17.7719C37.7696 17.8785 37.6533 18.0349 37.5963 18.2157C37.5234 18.4315 37.447 18.6461 37.367 18.8594C37.2566 19.163 37.1521 19.4687 37.0534 19.7763C36.9471 20.1009 36.8517 20.4017 36.7655 20.6804C36.6793 20.9555 36.6371 21.1481 36.6371 21.2526C36.6371 21.3865 36.6738 21.5387 36.7527 21.7111C36.8279 21.8835 36.9177 22.0742 37.0241 22.2851C37.1946 22.6269 37.3713 22.9656 37.5541 23.301V32.2559H37.0663C36.9038 32.2551 36.7415 32.2649 36.5803 32.2853C36.4304 32.3031 36.2846 32.3465 36.1493 32.4136C36.0227 32.4749 35.9146 32.5686 35.8357 32.685C35.7505 32.8329 35.7103 33.0025 35.7202 33.1729V42.4432C35.7202 43.063 35.8449 43.6462 36.0925 44.1909C36.3419 44.7355 36.6757 45.2123 37.0956 45.6231C37.9527 46.4622 39.1055 46.9306 40.3049 46.927C40.9156 46.927 41.4988 46.8078 42.0526 46.5694C42.5934 46.3391 43.0884 46.0136 43.5142 45.6084C43.9376 45.2057 44.2784 44.7241 44.5174 44.1909C44.7665 43.6421 44.8935 43.0458 44.8896 42.4432ZM41.2219 32.2559H39.388V23.0865C39.3877 22.9417 39.3531 22.799 39.2871 22.6702L38.5426 21.1811L39.1294 19.4187H41.4804L42.0673 21.1792L41.3227 22.6702C41.2567 22.799 41.2221 22.9417 41.2219 23.0865V32.2559ZM37.5541 35.9237V34.0898H43.0558V35.9237H37.5541ZM43.0558 37.7576V42.3423C43.0645 42.7072 42.9911 43.0695 42.8412 43.4023C42.6975 43.7334 42.4935 44.035 42.2397 44.2917C41.7253 44.803 41.0302 45.0909 40.3049 45.0931C39.9399 45.1024 39.5776 45.029 39.2449 44.8786C38.745 44.6688 38.318 44.3163 38.0173 43.8652C37.7166 43.4141 37.5555 42.8844 37.5541 42.3423V37.7576H43.0558ZM24.7169 18.5788C24.7171 18.4284 24.6803 18.2804 24.6098 18.1476C24.5393 18.0148 24.4373 17.9014 24.3126 17.8173C24.188 17.7332 24.0446 17.6811 23.8951 17.6655C23.7455 17.6499 23.5945 17.6713 23.4552 17.7279C21.9804 18.3244 20.7094 19.3344 19.7951 20.6363C18.8809 21.9382 18.3623 23.4766 18.3019 25.0663C18.2414 26.656 18.6416 28.2293 19.4544 29.5969C20.2671 30.9645 21.4578 32.0681 22.883 32.7749V43.2592C22.883 44.232 23.2694 45.1649 23.9573 45.8527C24.6451 46.5406 25.578 46.927 26.5508 46.927C27.5235 46.927 28.4564 46.5406 29.1443 45.8527C29.8321 45.1649 30.2185 44.232 30.2185 43.2592V32.7767C31.6444 32.0705 32.8358 30.9671 33.649 29.5994C34.4623 28.2317 34.8628 26.6581 34.8023 25.068C34.7419 23.478 34.223 21.9393 33.3082 20.6373C32.3934 19.3354 31.1218 18.3256 29.6464 17.7297C29.5071 17.6732 29.356 17.6518 29.2065 17.6674C29.0569 17.683 28.9135 17.7351 28.7889 17.8191C28.6643 17.9032 28.5622 18.0166 28.4917 18.1494C28.4212 18.2822 28.3844 18.4303 28.3847 18.5806V24.9204C28.3847 25.4067 28.1914 25.8732 27.8475 26.2171C27.5036 26.561 27.0371 26.7543 26.5508 26.7543C26.0644 26.7543 25.5979 26.561 25.254 26.2171C24.9101 25.8732 24.7169 25.4067 24.7169 24.9204V18.5788ZM20.1322 25.3825C20.1322 23.2002 21.2197 21.2746 22.883 20.1119V24.9167C22.883 25.8895 23.2694 26.8224 23.9573 27.5102C24.6451 28.198 25.578 28.5845 26.5508 28.5845C27.5235 28.5845 28.4564 28.198 29.1443 27.5102C29.8321 26.8224 30.2185 25.8895 30.2185 24.9167V20.1119C31.168 20.7729 31.9212 21.6781 32.3985 22.7319C32.8759 23.7857 33.0597 24.9489 32.9304 26.0985C32.8011 27.2482 32.3637 28.3415 31.6642 29.263C30.9648 30.1845 30.0293 30.8998 28.9568 31.3335C28.7878 31.402 28.6431 31.5195 28.5412 31.6707C28.4393 31.822 28.3848 32.0002 28.3847 32.1826V43.2592C28.3847 43.7456 28.1914 44.2121 27.8475 44.556C27.5036 44.8999 27.0371 45.0931 26.5508 45.0931C26.0644 45.0931 25.5979 44.8999 25.254 44.556C24.9101 44.2121 24.7169 43.7456 24.7169 43.2592V32.1826C24.7168 32.0002 24.6623 31.822 24.5603 31.6707C24.4584 31.5195 24.3137 31.402 24.1447 31.3335C22.9587 30.8537 21.9431 30.0305 21.2282 28.9695C20.5133 27.9086 20.1316 26.6582 20.1322 25.3788V25.3825Z" fill="white"/>
</svg>
